[gd_scene load_steps=3 format=2]

[ext_resource path="res://Models/Advert/Advert_001.material" type="Material" id=1]

[sub_resource type="ArrayMesh" id=1]
resource_name = "Plane.002"
surfaces/0 = {
"aabb": AABB( -2, -0.045579, -0.316031, 4, 0.930367, 0.650854 ),
"array_data": PoolByteArray( 0, 0, 0, 192, 14, 177, 58, 189, 95, 164, 134, 62, 127, 0, 0, 0, 0, 76, 101, 127, 230, 57, 226, 39, 0, 0, 0, 192, 0, 0, 0, 0, 225, 206, 161, 190, 127, 0, 0, 0, 0, 76, 101, 127, 234, 57, 4, 41, 0, 0, 0, 192, 0, 0, 0, 0, 95, 164, 134, 62, 127, 0, 0, 0, 0, 76, 101, 127, 233, 57, 11, 40, 0, 0, 0, 192, 25, 3, 87, 63, 225, 206, 161, 190, 0, 0, 129, 0, 126, 252, 0, 127, 190, 57, 146, 42, 0, 0, 0, 64, 0, 0, 0, 0, 225, 206, 161, 190, 0, 0, 129, 0, 126, 0, 0, 127, 140, 58, 89, 41, 0, 0, 0, 192, 0, 0, 0, 0, 225, 206, 161, 190, 0, 0, 129, 0, 126, 251, 0, 127, 234, 57, 4, 41, 0, 0, 0, 64, 0, 0, 0, 0, 225, 206, 161, 190, 129, 0, 0, 0, 0, 185, 152, 127, 140, 58, 89, 41, 0, 0, 0, 64, 14, 177, 58, 189, 95, 164, 134, 62, 129, 0, 0, 0, 0, 185, 152, 127, 149, 58, 62, 40, 0, 0, 0, 64, 0, 0, 0, 0, 95, 164, 134, 62, 129, 0, 0, 0, 0, 185, 152, 127, 144, 58, 91, 40, 0, 0, 0, 64, 14, 177, 58, 189, 95, 164, 134, 62, 0, 0, 129, 0, 126, 253, 0, 127, 149, 58, 62, 40, 0, 0, 0, 192, 0, 0, 0, 0, 95, 164, 134, 62, 0, 0, 129, 0, 126, 252, 0, 127, 233, 57, 11, 40, 0, 0, 0, 64, 0, 0, 0, 0, 95, 164, 134, 62, 0, 0, 129, 0, 126, 253, 0, 127, 144, 58, 91, 40, 0, 0, 0, 64, 0, 0, 0, 0, 225, 206, 161, 190, 0, 129, 0, 0, 126, 0, 5, 127, 140, 58, 89, 41, 0, 0, 0, 192, 0, 0, 0, 0, 95, 164, 134, 62, 0, 129, 0, 0, 126, 0, 6, 127, 233, 57, 11, 40, 0, 0, 0, 192, 0, 0, 0, 0, 225, 206, 161, 190, 0, 129, 0, 0, 126, 0, 6, 127, 234, 57, 4, 41, 0, 0, 0, 192, 25, 3, 87, 63, 225, 206, 161, 190, 0, 69, 106, 0, 127, 0, 0, 127, 132, 58, 127, 36, 0, 0, 0, 64, 14, 177, 58, 189, 95, 164, 134, 62, 0, 69, 106, 0, 127, 0, 0, 127, 79, 59, 226, 39, 0, 0, 0, 64, 25, 3, 87, 63, 225, 206, 161, 190, 0, 69, 106, 0, 127, 0, 0, 127, 79, 59, 127, 36, 0, 145, 244, 191, 169, 57, 68, 63, 33, 61, 137, 190, 0, 107, 189, 0, 126, 0, 0, 127, 206, 57, 125, 35, 247, 144, 244, 63, 240, 179, 70, 63, 2, 79, 129, 190, 0, 107, 189, 0, 126, 0, 0, 127, 113, 58, 187, 35, 247, 144, 244, 63, 169, 57, 68, 63, 33, 61, 137, 190, 0, 107, 189, 0, 126, 0, 0, 127, 114, 58, 116, 35, 247, 144, 244, 63, 169, 57, 68, 63, 33, 61, 137, 190, 0, 149, 67, 0, 126, 0, 0, 127, 114, 58, 116, 35, 0, 145, 244, 191, 4, 184, 79, 63, 61, 231, 72, 190, 0, 149, 67, 0, 126, 0, 0, 127, 202, 57, 6, 35, 0, 145, 244, 191, 169, 57, 68, 63, 33, 61, 137, 190, 0, 149, 67, 0, 126, 0, 0, 127, 206, 57, 125, 35, 0, 145, 244, 191, 189, 203, 227, 60, 68, 37, 92, 62, 0, 107, 189, 0, 126, 0, 0, 127, 208, 57, 16, 39, 247, 144, 244, 63, 199, 229, 148, 61, 33, 220, 146, 62, 0, 107, 189, 0, 126, 0, 0, 127, 120, 58, 71, 39, 247, 144, 244, 63, 189, 203, 227, 60, 68, 37, 92, 62, 0, 107, 189, 0, 126, 0, 0, 127, 116, 58, 11, 39, 0, 0, 0, 192, 14, 177, 58, 189, 95, 164, 134, 62, 129, 0, 0, 0, 0, 121, 37, 127, 191, 57, 226, 39, 0, 0, 0, 192, 114, 129, 98, 63, 190, 10, 122, 190, 129, 0, 0, 0, 0, 121, 37, 127, 196, 57, 124, 34, 0, 0, 0, 192, 25, 3, 87, 63, 225, 206, 161, 190, 129, 0, 0, 0, 0, 121, 37, 127, 190, 57, 208, 33, 0, 0, 0, 64, 14, 177, 58, 189, 95, 164, 134, 62, 0, 149, 67, 0, 126, 0, 0, 127, 132, 58, 226, 39, 0, 0, 0, 192, 128, 218, 50, 186, 226, 109, 171, 62, 0, 149, 67, 0, 127, 0, 0, 127, 198, 57, 153, 39, 0, 0, 0, 192, 14, 177, 58, 189, 95, 164, 134, 62, 0, 149, 67, 0, 127, 0, 0, 127, 191, 57, 226, 39, 0, 145, 244, 191, 240, 179, 70, 63, 2, 79, 129, 190, 0, 69, 106, 0, 127, 0, 0, 127, 255, 179, 82, 46, 247, 144, 244, 63, 80, 138, 25, 61, 123, 1, 108, 62, 0, 69, 106, 0, 127, 0, 0, 127, 255, 60, 164, 59, 247, 144, 244, 63, 240, 179, 70, 63, 2, 79, 129, 190, 0, 69, 106, 0, 127, 0, 0, 127, 255, 60, 82, 46, 247, 144, 244, 63, 189, 203, 227, 60, 68, 37, 92, 62, 127, 0, 0, 0, 0, 80, 158, 127, 116, 58, 11, 39, 247, 144, 244, 63, 240, 179, 70, 63, 2, 79, 129, 190, 127, 0, 0, 0, 0, 80, 158, 127, 113, 58, 187, 35, 247, 144, 244, 63, 80, 138, 25, 61, 123, 1, 108, 62, 127, 0, 0, 0, 0, 80, 158, 127, 115, 58, 217, 38, 0, 145, 244, 191, 189, 203, 227, 60, 68, 37, 92, 62, 129, 0, 0, 0, 0, 123, 227, 127, 208, 57, 16, 39, 0, 145, 244, 191, 240, 179, 70, 63, 2, 79, 129, 190, 129, 0, 0, 0, 0, 123, 227, 127, 208, 57, 225, 35, 0, 145, 244, 191, 169, 57, 68, 63, 33, 61, 137, 190, 129, 0, 0, 0, 0, 123, 227, 127, 206, 57, 125, 35, 247, 144, 244, 63, 189, 203, 227, 60, 68, 37, 92, 62, 0, 149, 67, 0, 126, 0, 0, 127, 116, 58, 11, 39, 0, 145, 244, 191, 80, 138, 25, 61, 123, 1, 108, 62, 0, 149, 67, 0, 126, 0, 0, 127, 209, 57, 237, 38, 0, 145, 244, 191, 189, 203, 227, 60, 68, 37, 92, 62, 0, 149, 67, 0, 126, 0, 0, 127, 208, 57, 16, 39, 0, 145, 244, 191, 199, 229, 148, 61, 33, 220, 146, 62, 0, 69, 106, 0, 126, 10, 249, 127, 203, 57, 70, 39, 0, 0, 0, 192, 114, 129, 98, 63, 190, 10, 122, 190, 0, 69, 106, 0, 126, 10, 249, 127, 196, 57, 124, 34, 0, 0, 0, 192, 128, 218, 50, 186, 226, 109, 171, 62, 0, 69, 106, 0, 126, 10, 249, 127, 198, 57, 153, 39, 247, 144, 244, 63, 4, 184, 79, 63, 61, 231, 72, 190, 0, 69, 106, 0, 126, 0, 0, 127, 119, 58, 7, 35, 0, 0, 0, 192, 114, 129, 98, 63, 190, 10, 122, 190, 0, 69, 106, 0, 127, 0, 0, 127, 196, 57, 124, 34, 0, 145, 244, 191, 4, 184, 79, 63, 61, 231, 72, 190, 0, 69, 106, 0, 126, 0, 0, 127, 202, 57, 6, 35, 247, 144, 244, 63, 199, 229, 148, 61, 33, 220, 146, 62, 0, 69, 106, 0, 125, 13, 247, 127, 120, 58, 71, 39, 0, 0, 0, 64, 114, 129, 98, 63, 190, 10, 122, 190, 0, 69, 106, 0, 125, 13, 247, 127, 124, 58, 97, 34, 247, 144, 244, 63, 4, 184, 79, 63, 61, 231, 72, 190, 0, 69, 106, 0, 125, 13, 247, 127, 119, 58, 7, 35, 0, 145, 244, 191, 199, 229, 148, 61, 33, 220, 146, 62, 0, 69, 106, 0, 127, 0, 0, 127, 203, 57, 70, 39, 0, 0, 0, 64, 128, 218, 50, 186, 226, 109, 171, 62, 0, 69, 106, 0, 127, 0, 0, 127, 126, 58, 140, 39, 247, 144, 244, 63, 199, 229, 148, 61, 33, 220, 146, 62, 0, 69, 106, 0, 127, 0, 0, 127, 120, 58, 71, 39, 0, 0, 0, 192, 25, 3, 87, 63, 225, 206, 161, 190, 0, 107, 189, 0, 127, 0, 0, 127, 190, 57, 208, 33, 0, 0, 0, 64, 114, 129, 98, 63, 190, 10, 122, 190, 0, 107, 189, 0, 126, 0, 0, 127, 124, 58, 97, 34, 0, 0, 0, 64, 25, 3, 87, 63, 225, 206, 161, 190, 0, 107, 189, 0, 127, 0, 0, 127, 131, 58, 208, 33, 247, 144, 244, 63, 189, 203, 227, 60, 68, 37, 92, 62, 129, 0, 0, 0, 0, 254, 126, 127, 116, 58, 11, 39, 247, 144, 244, 63, 4, 184, 79, 63, 61, 231, 72, 190, 129, 0, 0, 0, 0, 254, 126, 127, 119, 58, 7, 35, 247, 144, 244, 63, 169, 57, 68, 63, 33, 61, 137, 190, 129, 0, 0, 0, 0, 254, 126, 127, 114, 58, 116, 35, 0, 0, 0, 64, 14, 177, 58, 189, 95, 164, 134, 62, 127, 0, 0, 0, 0, 25, 132, 127, 132, 58, 226, 39, 0, 0, 0, 64, 114, 129, 98, 63, 190, 10, 122, 190, 127, 0, 0, 0, 0, 25, 132, 127, 124, 58, 97, 34, 0, 0, 0, 64, 128, 218, 50, 186, 226, 109, 171, 62, 127, 0, 0, 0, 0, 25, 132, 127, 126, 58, 140, 39, 0, 145, 244, 191, 189, 203, 227, 60, 68, 37, 92, 62, 127, 0, 0, 0, 0, 144, 198, 127, 208, 57, 16, 39, 0, 145, 244, 191, 4, 184, 79, 63, 61, 231, 72, 190, 127, 0, 0, 0, 0, 144, 198, 127, 202, 57, 6, 35, 0, 145, 244, 191, 199, 229, 148, 61, 33, 220, 146, 62, 127, 0, 0, 0, 0, 144, 198, 127, 203, 57, 70, 39, 0, 0, 0, 192, 14, 177, 58, 189, 95, 164, 134, 62, 129, 0, 0, 0, 0, 170, 163, 127, 230, 57, 226, 39, 0, 0, 0, 192, 25, 3, 87, 63, 225, 206, 161, 190, 129, 0, 0, 0, 0, 170, 163, 127, 190, 57, 146, 42, 0, 0, 0, 192, 0, 0, 0, 0, 225, 206, 161, 190, 129, 0, 0, 0, 0, 170, 163, 127, 234, 57, 4, 41, 0, 0, 0, 64, 25, 3, 87, 63, 225, 206, 161, 190, 0, 0, 129, 0, 127, 0, 0, 127, 175, 58, 146, 42, 0, 0, 0, 64, 0, 0, 0, 0, 225, 206, 161, 190, 127, 0, 0, 0, 0, 98, 79, 127, 140, 58, 89, 41, 0, 0, 0, 64, 25, 3, 87, 63, 225, 206, 161, 190, 127, 0, 0, 0, 0, 98, 79, 127, 175, 58, 146, 42, 0, 0, 0, 64, 14, 177, 58, 189, 95, 164, 134, 62, 127, 0, 0, 0, 0, 98, 79, 127, 149, 58, 62, 40, 0, 0, 0, 192, 14, 177, 58, 189, 95, 164, 134, 62, 0, 0, 129, 0, 126, 252, 0, 127, 230, 57, 226, 39, 0, 0, 0, 64, 0, 0, 0, 0, 95, 164, 134, 62, 0, 129, 0, 0, 126, 0, 5, 127, 144, 58, 91, 40, 0, 0, 0, 192, 14, 177, 58, 189, 95, 164, 134, 62, 0, 69, 106, 0, 127, 0, 0, 127, 132, 58, 226, 39, 0, 145, 244, 191, 169, 57, 68, 63, 33, 61, 137, 190, 0, 107, 189, 0, 126, 0, 0, 127, 206, 57, 125, 35, 0, 145, 244, 191, 240, 179, 70, 63, 2, 79, 129, 190, 0, 107, 189, 0, 126, 0, 0, 127, 208, 57, 225, 35, 247, 144, 244, 63, 240, 179, 70, 63, 2, 79, 129, 190, 0, 107, 189, 0, 126, 0, 0, 127, 113, 58, 187, 35, 247, 144, 244, 63, 169, 57, 68, 63, 33, 61, 137, 190, 0, 149, 67, 0, 126, 0, 0, 127, 114, 58, 116, 35, 247, 144, 244, 63, 4, 184, 79, 63, 61, 231, 72, 190, 0, 149, 67, 0, 126, 0, 0, 127, 119, 58, 7, 35, 0, 145, 244, 191, 4, 184, 79, 63, 61, 231, 72, 190, 0, 149, 67, 0, 126, 0, 0, 127, 202, 57, 6, 35, 0, 145, 244, 191, 189, 203, 227, 60, 68, 37, 92, 62, 0, 107, 189, 0, 126, 0, 0, 127, 208, 57, 16, 39, 0, 145, 244, 191, 199, 229, 148, 61, 33, 220, 146, 62, 0, 107, 189, 0, 126, 0, 0, 127, 203, 57, 70, 39, 247, 144, 244, 63, 199, 229, 148, 61, 33, 220, 146, 62, 0, 107, 189, 0, 126, 0, 0, 127, 120, 58, 71, 39, 0, 0, 0, 192, 14, 177, 58, 189, 95, 164, 134, 62, 129, 0, 0, 0, 0, 242, 126, 127, 191, 57, 226, 39, 0, 0, 0, 192, 128, 218, 50, 186, 226, 109, 171, 62, 129, 0, 0, 0, 0, 242, 126, 127, 198, 57, 153, 39, 0, 0, 0, 192, 114, 129, 98, 63, 190, 10, 122, 190, 129, 0, 0, 0, 0, 242, 126, 127, 196, 57, 124, 34, 0, 0, 0, 64, 128, 218, 50, 186, 226, 109, 171, 62, 0, 149, 67, 0, 126, 0, 0, 127, 126, 58, 140, 39, 0, 145, 244, 191, 80, 138, 25, 61, 123, 1, 108, 62, 0, 69, 106, 0, 127, 0, 0, 127, 255, 179, 164, 59, 247, 144, 244, 63, 189, 203, 227, 60, 68, 37, 92, 62, 127, 0, 0, 0, 0, 130, 14, 127, 116, 58, 11, 39, 247, 144, 244, 63, 169, 57, 68, 63, 33, 61, 137, 190, 127, 0, 0, 0, 0, 130, 14, 127, 114, 58, 116, 35, 247, 144, 244, 63, 240, 179, 70, 63, 2, 79, 129, 190, 127, 0, 0, 0, 0, 130, 14, 127, 113, 58, 187, 35, 0, 145, 244, 191, 189, 203, 227, 60, 68, 37, 92, 62, 129, 0, 0, 0, 0, 188, 106, 127, 208, 57, 16, 39, 0, 145, 244, 191, 80, 138, 25, 61, 123, 1, 108, 62, 129, 0, 0, 0, 0, 188, 106, 127, 209, 57, 237, 38, 0, 145, 244, 191, 240, 179, 70, 63, 2, 79, 129, 190, 129, 0, 0, 0, 0, 188, 106, 127, 208, 57, 225, 35, 247, 144, 244, 63, 189, 203, 227, 60, 68, 37, 92, 62, 0, 149, 67, 0, 126, 0, 0, 127, 116, 58, 11, 39, 247, 144, 244, 63, 80, 138, 25, 61, 123, 1, 108, 62, 0, 149, 67, 0, 126, 0, 0, 127, 115, 58, 217, 38, 0, 145, 244, 191, 80, 138, 25, 61, 123, 1, 108, 62, 0, 149, 67, 0, 126, 0, 0, 127, 209, 57, 237, 38, 0, 145, 244, 191, 199, 229, 148, 61, 33, 220, 146, 62, 0, 69, 106, 0, 122, 228, 18, 127, 203, 57, 70, 39, 0, 145, 244, 191, 4, 184, 79, 63, 61, 231, 72, 190, 0, 69, 106, 0, 122, 228, 18, 127, 202, 57, 6, 35, 0, 0, 0, 192, 114, 129, 98, 63, 190, 10, 122, 190, 0, 69, 106, 0, 122, 228, 18, 127, 196, 57, 124, 34, 0, 0, 0, 64, 114, 129, 98, 63, 190, 10, 122, 190, 0, 69, 106, 0, 126, 0, 0, 127, 124, 58, 97, 34, 247, 144, 244, 63, 199, 229, 148, 61, 33, 220, 146, 62, 0, 69, 106, 0, 123, 230, 17, 127, 120, 58, 71, 39, 0, 0, 0, 64, 128, 218, 50, 186, 226, 109, 171, 62, 0, 69, 106, 0, 123, 230, 17, 127, 126, 58, 140, 39, 0, 0, 0, 64, 114, 129, 98, 63, 190, 10, 122, 190, 0, 69, 106, 0, 123, 230, 17, 127, 124, 58, 97, 34, 0, 145, 244, 191, 199, 229, 148, 61, 33, 220, 146, 62, 0, 69, 106, 0, 126, 0, 0, 127, 203, 57, 70, 39, 0, 0, 0, 192, 128, 218, 50, 186, 226, 109, 171, 62, 0, 69, 106, 0, 126, 0, 0, 127, 198, 57, 153, 39, 0, 0, 0, 64, 128, 218, 50, 186, 226, 109, 171, 62, 0, 69, 106, 0, 126, 0, 0, 127, 126, 58, 140, 39, 0, 0, 0, 192, 25, 3, 87, 63, 225, 206, 161, 190, 0, 107, 189, 0, 126, 0, 0, 127, 190, 57, 208, 33, 0, 0, 0, 192, 114, 129, 98, 63, 190, 10, 122, 190, 0, 107, 189, 0, 126, 0, 0, 127, 196, 57, 124, 34, 0, 0, 0, 64, 114, 129, 98, 63, 190, 10, 122, 190, 0, 107, 189, 0, 126, 0, 0, 127, 124, 58, 97, 34, 247, 144, 244, 63, 189, 203, 227, 60, 68, 37, 92, 62, 129, 0, 0, 0, 0, 115, 53, 127, 116, 58, 11, 39, 247, 144, 244, 63, 199, 229, 148, 61, 33, 220, 146, 62, 129, 0, 0, 0, 0, 115, 53, 127, 120, 58, 71, 39, 247, 144, 244, 63, 4, 184, 79, 63, 61, 231, 72, 190, 129, 0, 0, 0, 0, 115, 53, 127, 119, 58, 7, 35, 0, 0, 0, 64, 14, 177, 58, 189, 95, 164, 134, 62, 127, 0, 0, 0, 0, 139, 209, 127, 132, 58, 226, 39, 0, 0, 0, 64, 25, 3, 87, 63, 225, 206, 161, 190, 127, 0, 0, 0, 0, 139, 209, 127, 131, 58, 208, 33, 0, 0, 0, 64, 114, 129, 98, 63, 190, 10, 122, 190, 127, 0, 0, 0, 0, 139, 209, 127, 124, 58, 97, 34, 0, 145, 244, 191, 189, 203, 227, 60, 68, 37, 92, 62, 127, 0, 0, 0, 0, 8, 130, 127, 208, 57, 16, 39, 0, 145, 244, 191, 169, 57, 68, 63, 33, 61, 137, 190, 127, 0, 0, 0, 0, 8, 130, 127, 206, 57, 125, 35, 0, 145, 244, 191, 4, 184, 79, 63, 61, 231, 72, 190, 127, 0, 0, 0, 0, 8, 130, 127, 202, 57, 6, 35 ),
"array_index_data": PoolByteArray( 0, 0, 2, 0, 1, 0, 3, 0, 5, 0, 4, 0, 6, 0, 8, 0, 7, 0, 9, 0, 11, 0, 10, 0, 12, 0, 14, 0, 13, 0, 15, 0, 17, 0, 16, 0, 18, 0, 20, 0, 19, 0, 21, 0, 23, 0, 22, 0, 24, 0, 26, 0, 25, 0, 27, 0, 29, 0, 28, 0, 30, 0, 32, 0, 31, 0, 33, 0, 35, 0, 34, 0, 36, 0, 38, 0, 37, 0, 39, 0, 41, 0, 40, 0, 42, 0, 44, 0, 43, 0, 45, 0, 47, 0, 46, 0, 48, 0, 50, 0, 49, 0, 51, 0, 53, 0, 52, 0, 54, 0, 56, 0, 55, 0, 57, 0, 59, 0, 58, 0, 60, 0, 62, 0, 61, 0, 63, 0, 65, 0, 64, 0, 66, 0, 68, 0, 67, 0, 69, 0, 71, 0, 70, 0, 3, 0, 4, 0, 72, 0, 73, 0, 75, 0, 74, 0, 9, 0, 10, 0, 76, 0, 12, 0, 13, 0, 77, 0, 15, 0, 16, 0, 78, 0, 79, 0, 81, 0, 80, 0, 82, 0, 84, 0, 83, 0, 85, 0, 87, 0, 86, 0, 88, 0, 90, 0, 89, 0, 30, 0, 31, 0, 91, 0, 33, 0, 34, 0, 92, 0, 93, 0, 95, 0, 94, 0, 96, 0, 98, 0, 97, 0, 99, 0, 101, 0, 100, 0, 102, 0, 104, 0, 103, 0, 48, 0, 49, 0, 105, 0, 106, 0, 108, 0, 107, 0, 109, 0, 111, 0, 110, 0, 112, 0, 114, 0, 113, 0, 115, 0, 117, 0, 116, 0, 118, 0, 120, 0, 119, 0, 121, 0, 123, 0, 122, 0 ),
"blend_shape_data": [  ],
"format": 97559,
"index_count": 138,
"material": ExtResource( 1 ),
"name": "Advert_001",
"primitive": 4,
"skeleton_aabb": [  ],
"vertex_count": 124
}

[node name="Advert" type="Spatial"]

[node name="Adverts" type="MeshInstance" parent="."]
mesh = SubResource( 1 )
material/0 = null

[node name="AnimationPlayer" type="AnimationPlayer" parent="."]
